{
    "identifier": "com.aaltointeractive.filediff",
    "name": "FileDiff",
    "organization": "Aalto Interactive",
    "description": "A quick and dirty extension to use the Xcode FileMerge tool to compare editor contents.",
    "version": "1.0",
    "categories": ["commands"],
    
    "main": "main.js",
    
    "entitlements": {
        "filesystem": "readwrite", "process": true
    },
    
    "commands": {
        "extensions": [
            {
                "title": "Use as Left file",
                "command": "filediff.setLeftFile",
                "shortcut": "ctrl-opt-<"
            },
            {
                "title": "Use as Right file",
                "command": "filediff.setRightFile",
                "shortcut": "ctrl-opt->"
            },
            {
                "title": "Compare Files",
                "command": "filediff.compareFiles",
                "shortcut": "ctrl-opt-?"                
            }
        ]
    },
    
    "config": [
        {
            "key": "filediff.toolpath",
            "title": "Executable Path",
            "type": "string",
            "default": "/Applications/Xcode.app/Contents/Applications/FileMerge.app/Contents/MacOS/FileMerge"
        }
    ],
    
    "repository": "https://bitbucket.org/aaltointeractive/filediff/src/master/",
    "bugs": "https://bitbucket.org/aaltointeractive/filediff/src/master/"
}
